{
	"properties": [
		{
			"key": "mass",
			"value": "0.5",
			"type": "FLOAT"
		},
		{
			"key": "maxHitPoints",
			"value": "200",
			"type": "INTEGER"
		},
		{
			"key": "maxShields",
			"value": "200",
			"type": "INTEGER"
		},
		{
			"key": "hitPoints",
			"value": "200",
			"type": "INTEGER"
		},
		{
			"key": "shields",
			"value": "200",
			"type": "INTEGER"
		},
		{
			"key": "shieldRegeneration",
			"value": "2.5",
			"type": "FLOAT"
		},
		{
			"key": "specialWeaponEnergy",
			"value": "0.0",
			"type": "FLOAT"
		},
		{
			"key": "specialWeaponEnergyPerWeaponFire",
			"value": "7.0",
			"type": "FLOAT"
		},
		{
			"key": "maxSpecialWeaponEnergy",
			"value": "50.0",
			"type": "FLOAT"
		},
		{
			"key": "specialWeaponEnergyRegeneration",
			"value": "2.0",
			"type": "FLOAT"
		},
		{
			"key": "acceleration",
			"value": "15.0",
			"type": "FLOAT"
		},
		{
			"key": "maxForwardSpeed",
			"value": "40.0",
			"type": "FLOAT"
		},
		{
			"key": "maxBoostSpeed",
			"value": "60.0",
			"type": "FLOAT"
		},
		{
			"key": "maxBoostEnergy",
			"value": "100.0",
			"type": "FLOAT"
		},
		{
			"key": "boostEnergy",
			"value": "100.0",
			"type": "FLOAT"
		},
		{
			"key": "maxStrafeSpeed",
			"value": "7.0",
			"type": "FLOAT"
		},
		{
			"key": "maxRollSpeed",
			"value": "800.0",
			"type": "FLOAT"
		},
		{
			"key": "maxYawSpeed",
			"value": "20000.0",
			"type": "FLOAT"
		},
		{
			"key": "maxPitchSpeed",
			"value": "20000.0",
			"type": "FLOAT"
		},
		{
			"key": "sync",
			"value": "true",
			"type": "BOOLEAN"
		},
		{
			"key": "standard_weaponFireDamage",
			"value": "10",
			"type": "INTEGER"
		},
		{
			"key": "standard_weaponFireCoolDown",
			"value": "0.5",
			"type": "FLOAT"
		},
		{
			"key": "standard_weaponFireSpeed",
			"value": "250.0",
			"type": "FLOAT"
		},
		{
			"key": "standard_weaponFireLifeTime",
			"value": "5.0",
			"type": "FLOAT"
		},
		{
			"key": "standard_weaponFireSize",
			"value": "0.1",
			"type": "FLOAT"
		},
		{
			"key": "special_weaponFireDamage",
			"value": "60",
			"type": "INTEGER"
		},
		{
			"key": "special_weaponFireCoolDown",
			"value": "0.8",
			"type": "FLOAT"
		},
		{
			"key": "special_weaponFireSpeed",
			"value": "20000.0",
			"type": "FLOAT"
		},
		{
			"key": "special_weaponFireLifeTime",
			"value": "0.5",
			"type": "FLOAT"
		},
		{
			"key": "special_weaponFireSize",
			"value": "0.1",
			"type": "FLOAT"
		},
		{
			"key": "special_weaponFireType",
			"value": "special_weaponFireType_railGun",
			"type": "STRING"
		}
	]
}
